<?xml version="1.0" encoding="utf-8"?>
<OAI-PMH xmlns="http://www.openarchives.org/OAI/2.0/" xmlns:xsi="http://www.w3.org/2001/XMLSchema-instance" xsi:schemaLocation="http://www.openarchives.org/OAI/2.0/OAI-PMH.xsd">
<responseDate>2022-01-17T17:24:43Z</responseDate>
<request from="2022-01-01T00:00:00Z" metadataPrefix="oai_zb_preview" verb="ListIdentifiers">https://oai.zbmath.org/v1/</request>
<ListIdentifiers>
<header>
<identifier>oai:zbmath.org:7454786</identifier>
<datestamp>2022-01-10T13:03:10Z</datestamp>
<setSpec>90</setSpec>
</header>
<header>
<identifier>oai:zbmath.org:7457565</identifier>
<datestamp>2022-01-14T22:14:28Z</datestamp>
<setSpec>68</setSpec>
<setSpec>90</setSpec>
</header>
<header>
<identifier>oai:zbmath.org:7457569</identifier>
<datestamp>2022-01-14T22:14:28Z</datestamp>
<setSpec>68</setSpec>
<setSpec>90</setSpec>
</header>
<header>
<identifier>oai:zbmath.org:7451233</identifier>
<datestamp>2022-01-03T11:45:55Z</datestamp>
<setSpec>14</setSpec>
<setSpec>16</setSpec>
<setSpec>18</setSpec>
</header>
<header>
<identifier>oai:zbmath.org:7451234</identifier>
<datestamp>2022-01-03T11:45:55Z</datestamp>
<setSpec>46</setSpec>
<setSpec>47</setSpec>
</header>
<header>
<identifier>oai:zbmath.org:7451235</identifier>
<datestamp>2022-01-03T11:45:55Z</datestamp>
<setSpec>05</setSpec>
<setSpec>20</setSpec>
</header>
<header>
<identifier>oai:zbmath.org:7451236</identifier>
<datestamp>2022-01-03T11:47:30Z</datestamp>
<setSpec>05</setSpec>
</header>
<header>
<identifier>oai:zbmath.org:7451237</identifier>
<datestamp>2022-01-03T11:47:30Z</datestamp>
<setSpec>05</setSpec>
</header>
<header>
<identifier>oai:zbmath.org:7451238</identifier>
<datestamp>2022-01-03T11:47:30Z</datestamp>
<setSpec>05</setSpec>
</header>
<header>
<identifier>oai:zbmath.org:7451239</identifier>
<datestamp>2022-01-03T11:47:30Z</datestamp>
<setSpec>05</setSpec>
</header>
<header>
<identifier>oai:zbmath.org:7451240</identifier>
<datestamp>2022-01-03T11:47:30Z</datestamp>
<setSpec>05</setSpec>
</header>
<header>
<identifier>oai:zbmath.org:7451241</identifier>
<datestamp>2022-01-03T11:47:30Z</datestamp>
<setSpec>05</setSpec>
</header>
<header>
<identifier>oai:zbmath.org:7451242</identifier>
<datestamp>2022-01-03T11:47:30Z</datestamp>
<setSpec>05</setSpec>
</header>
<header>
<identifier>oai:zbmath.org:7451243</identifier>
<datestamp>2022-01-03T11:47:30Z</datestamp>
<setSpec>05</setSpec>
</header>
<header>
<identifier>oai:zbmath.org:7451244</identifier>
<datestamp>2022-01-03T11:47:30Z</datestamp>
<setSpec>05</setSpec>
<setSpec>91</setSpec>
<setSpec>94</setSpec>
</header>
<header>
<identifier>oai:zbmath.org:7451245</identifier>
<datestamp>2022-01-03T11:47:30Z</datestamp>
<setSpec>05</setSpec>
</header>
<header>
<identifier>oai:zbmath.org:7451246</identifier>
<datestamp>2022-01-03T11:47:30Z</datestamp>
<setSpec>05</setSpec>
</header>
<header>
<identifier>oai:zbmath.org:7451247</identifier>
<datestamp>2022-01-03T11:47:30Z</datestamp>
<setSpec>05</setSpec>
</header>
<header>
<identifier>oai:zbmath.org:7451248</identifier>
<datestamp>2022-01-03T11:47:30Z</datestamp>
<setSpec>05</setSpec>
<setSpec>51</setSpec>
</header>
<header>
<identifier>oai:zbmath.org:7451249</identifier>
<datestamp>2022-01-03T11:47:30Z</datestamp>
<setSpec>05</setSpec>
</header>
<header>
<identifier>oai:zbmath.org:7451250</identifier>
<datestamp>2022-01-03T11:47:30Z</datestamp>
<setSpec>05</setSpec>
</header>
<header>
<identifier>oai:zbmath.org:7451251</identifier>
<datestamp>2022-01-03T11:47:30Z</datestamp>
<setSpec>05</setSpec>
</header>
<header>
<identifier>oai:zbmath.org:7451252</identifier>
<datestamp>2022-01-03T11:47:30Z</datestamp>
<setSpec>05</setSpec>
</header>
<header>
<identifier>oai:zbmath.org:7451253</identifier>
<datestamp>2022-01-03T11:47:30Z</datestamp>
<setSpec>05</setSpec>
</header>
<header>
<identifier>oai:zbmath.org:7451254</identifier>
<datestamp>2022-01-03T11:47:30Z</datestamp>
<setSpec>05</setSpec>
</header>
<header>
<identifier>oai:zbmath.org:7451255</identifier>
<datestamp>2022-01-03T11:47:30Z</datestamp>
<setSpec>05</setSpec>
</header>
<header>
<identifier>oai:zbmath.org:7451256</identifier>
<datestamp>2022-01-03T11:47:30Z</datestamp>
<setSpec>05</setSpec>
</header>
<header>
<identifier>oai:zbmath.org:7451257</identifier>
<datestamp>2022-01-03T11:48:27Z</datestamp>
<setSpec>35</setSpec>
</header>
<header>
<identifier>oai:zbmath.org:7451258</identifier>
<datestamp>2022-01-03T11:48:27Z</datestamp>
<setSpec>34</setSpec>
<setSpec>35</setSpec>
<setSpec>92</setSpec>
</header>
<header>
<identifier>oai:zbmath.org:7451259</identifier>
<datestamp>2022-01-03T11:48:27Z</datestamp>
<setSpec>35</setSpec>
<setSpec>37</setSpec>
</header>
<header>
<identifier>oai:zbmath.org:7451260</identifier>
<datestamp>2022-01-03T11:48:27Z</datestamp>
<setSpec>35</setSpec>
</header>
<header>
<identifier>oai:zbmath.org:7451261</identifier>
<datestamp>2022-01-03T11:48:27Z</datestamp>
<setSpec>34</setSpec>
<setSpec>35</setSpec>
</header>
<header>
<identifier>oai:zbmath.org:7451262</identifier>
<datestamp>2022-01-03T11:48:27Z</datestamp>
<setSpec>35</setSpec>
<setSpec>49</setSpec>
</header>
<header>
<identifier>oai:zbmath.org:7451263</identifier>
<datestamp>2022-01-03T11:48:27Z</datestamp>
<setSpec>11</setSpec>
<setSpec>37</setSpec>
</header>
<header>
<identifier>oai:zbmath.org:7451264</identifier>
<datestamp>2022-01-03T11:48:27Z</datestamp>
<setSpec>35</setSpec>
<setSpec>76</setSpec>
</header>
<header>
<identifier>oai:zbmath.org:7451265</identifier>
<datestamp>2022-01-03T11:48:27Z</datestamp>
<setSpec>37</setSpec>
</header>
<header>
<identifier>oai:zbmath.org:7451266</identifier>
<datestamp>2022-01-03T11:48:27Z</datestamp>
<setSpec>35</setSpec>
<setSpec>53</setSpec>
</header>
<header>
<identifier>oai:zbmath.org:7451267</identifier>
<datestamp>2022-01-03T11:48:27Z</datestamp>
<setSpec>14</setSpec>
<setSpec>37</setSpec>
<setSpec>68</setSpec>
</header>
<header>
<identifier>oai:zbmath.org:7451268</identifier>
<datestamp>2022-01-03T11:48:27Z</datestamp>
<setSpec>35</setSpec>
<setSpec>58</setSpec>
</header>
<header>
<identifier>oai:zbmath.org:7451269</identifier>
<datestamp>2022-01-03T11:48:27Z</datestamp>
<setSpec>37</setSpec>
</header>
<header>
<identifier>oai:zbmath.org:7451270</identifier>
<datestamp>2022-01-03T11:48:27Z</datestamp>
<setSpec>22</setSpec>
<setSpec>53</setSpec>
<setSpec>70</setSpec>
</header>
<header>
<identifier>oai:zbmath.org:7451271</identifier>
<datestamp>2022-01-03T11:48:27Z</datestamp>
<setSpec>37</setSpec>
</header>
<header>
<identifier>oai:zbmath.org:7451272</identifier>
<datestamp>2022-01-03T11:48:27Z</datestamp>
<setSpec>35</setSpec>
</header>
<header>
<identifier>oai:zbmath.org:7451273</identifier>
<datestamp>2022-01-03T11:48:27Z</datestamp>
<setSpec>35</setSpec>
<setSpec>49</setSpec>
<setSpec>74</setSpec>
</header>
<header>
<identifier>oai:zbmath.org:7451274</identifier>
<datestamp>2022-01-03T11:48:27Z</datestamp>
<setSpec>35</setSpec>
<setSpec>76</setSpec>
</header>
<header>
<identifier>oai:zbmath.org:7451275</identifier>
<datestamp>2022-01-03T11:48:27Z</datestamp>
<setSpec>35</setSpec>
<setSpec>93</setSpec>
</header>
<header>
<identifier>oai:zbmath.org:7451276</identifier>
<datestamp>2022-01-03T11:48:27Z</datestamp>
<setSpec>35</setSpec>
</header>
<header>
<identifier>oai:zbmath.org:7451279</identifier>
<datestamp>2022-01-03T11:49:12Z</datestamp>
<setSpec>47</setSpec>
<setSpec>60</setSpec>
</header>
<header>
<identifier>oai:zbmath.org:7451280</identifier>
<datestamp>2022-01-03T11:49:12Z</datestamp>
<setSpec>49</setSpec>
<setSpec>90</setSpec>
</header>
<header>
<identifier>oai:zbmath.org:7451281</identifier>
<datestamp>2022-01-03T11:49:12Z</datestamp>
<setSpec>57</setSpec>
</header>
<header>
<identifier>oai:zbmath.org:7451282</identifier>
<datestamp>2022-01-03T11:49:12Z</datestamp>
<setSpec>35</setSpec>
<setSpec>46</setSpec>
</header>
<header>
<identifier>oai:zbmath.org:7451283</identifier>
<datestamp>2022-01-03T11:49:12Z</datestamp>
<setSpec>30</setSpec>
<setSpec>94</setSpec>
</header>
<header>
<identifier>oai:zbmath.org:7451284</identifier>
<datestamp>2022-01-03T11:49:12Z</datestamp>
<setSpec>14</setSpec>
</header>
<header>
<identifier>oai:zbmath.org:7451285</identifier>
<datestamp>2022-01-03T11:49:12Z</datestamp>
<setSpec>05</setSpec>
<setSpec>20</setSpec>
</header>
<header>
<identifier>oai:zbmath.org:7451286</identifier>
<datestamp>2022-01-03T11:49:12Z</datestamp>
<setSpec>13</setSpec>
</header>
<header>
<identifier>oai:zbmath.org:7451287</identifier>
<datestamp>2022-01-03T11:49:12Z</datestamp>
<setSpec>30</setSpec>
<setSpec>53</setSpec>
<setSpec>54</setSpec>
</header>
<header>
<identifier>oai:zbmath.org:7451288</identifier>
<datestamp>2022-01-03T11:49:12Z</datestamp>
<setSpec>11</setSpec>
<setSpec>22</setSpec>
<setSpec>37</setSpec>
<setSpec>60</setSpec>
<setSpec>81</setSpec>
</header>
<header>
<identifier>oai:zbmath.org:7451289</identifier>
<datestamp>2022-01-03T11:49:12Z</datestamp>
<setSpec>43</setSpec>
</header>
<header>
<identifier>oai:zbmath.org:7451290</identifier>
<datestamp>2022-01-03T11:49:12Z</datestamp>
<setSpec>37</setSpec>
</header>
<header>
<identifier>oai:zbmath.org:7451291</identifier>
<datestamp>2022-01-03T11:49:12Z</datestamp>
<setSpec>12</setSpec>
</header>
<header>
<identifier>oai:zbmath.org:7451292</identifier>
<datestamp>2022-01-03T11:49:12Z</datestamp>
<setSpec>35</setSpec>
<setSpec>53</setSpec>
</header>
<header>
<identifier>oai:zbmath.org:7451293</identifier>
<datestamp>2022-01-03T11:49:12Z</datestamp>
<setSpec>28</setSpec>
<setSpec>30</setSpec>
</header>
<header>
<identifier>oai:zbmath.org:7451294</identifier>
<datestamp>2022-01-03T11:49:12Z</datestamp>
<setSpec>11</setSpec>
</header>
<header>
<identifier>oai:zbmath.org:7451295</identifier>
<datestamp>2022-01-03T11:49:12Z</datestamp>
<setSpec>42</setSpec>
<setSpec>47</setSpec>
</header>
<header>
<identifier>oai:zbmath.org:7451296</identifier>
<datestamp>2022-01-03T11:49:12Z</datestamp>
<setSpec>26</setSpec>
<setSpec>34</setSpec>
</header>
<header>
<identifier>oai:zbmath.org:7451297</identifier>
<datestamp>2022-01-03T11:49:12Z</datestamp>
<setSpec>49</setSpec>
<setSpec>52</setSpec>
</header>
<header>
<identifier>oai:zbmath.org:7451298</identifier>
<datestamp>2022-01-03T11:49:12Z</datestamp>
<setSpec>15</setSpec>
<setSpec>47</setSpec>
</header>
<header>
<identifier>oai:zbmath.org:7451299</identifier>
<datestamp>2022-01-03T11:49:12Z</datestamp>
<setSpec>70</setSpec>
</header>
<header>
<identifier>oai:zbmath.org:7451300</identifier>
<datestamp>2022-01-03T11:49:12Z</datestamp>
<setSpec>14</setSpec>
<setSpec>16</setSpec>
</header>
<header>
<identifier>oai:zbmath.org:7451301</identifier>
<datestamp>2022-01-03T11:49:12Z</datestamp>
<setSpec>05</setSpec>
<setSpec>52</setSpec>
<setSpec>53</setSpec>
<setSpec>57</setSpec>
</header>
<header>
<identifier>oai:zbmath.org:7451302</identifier>
<datestamp>2022-01-03T11:49:12Z</datestamp>
<setSpec>14</setSpec>
<setSpec>19</setSpec>
</header>
<header>
<identifier>oai:zbmath.org:7451303</identifier>
<datestamp>2022-01-03T11:49:12Z</datestamp>
<setSpec>28</setSpec>
<setSpec>42</setSpec>
</header>
<header>
<identifier>oai:zbmath.org:7451304</identifier>
<datestamp>2022-01-03T11:49:12Z</datestamp>
<setSpec>11</setSpec>
<setSpec>28</setSpec>
</header>
<header>
<identifier>oai:zbmath.org:7451305</identifier>
<datestamp>2022-01-03T11:49:59Z</datestamp>
<setSpec>17</setSpec>
<setSpec>53</setSpec>
</header>
<header>
<identifier>oai:zbmath.org:7451306</identifier>
<datestamp>2022-01-03T11:49:59Z</datestamp>
<setSpec>16</setSpec>
<setSpec>20</setSpec>
</header>
<header>
<identifier>oai:zbmath.org:7451307</identifier>
<datestamp>2022-01-03T11:49:59Z</datestamp>
<setSpec>05</setSpec>
<setSpec>16</setSpec>
</header>
<header>
<identifier>oai:zbmath.org:7451308</identifier>
<datestamp>2022-01-03T11:49:59Z</datestamp>
<setSpec>16</setSpec>
<setSpec>18</setSpec>
<setSpec>20</setSpec>
</header>
<header>
<identifier>oai:zbmath.org:7451309</identifier>
<datestamp>2022-01-03T11:49:59Z</datestamp>
<setSpec>17</setSpec>
</header>
<header>
<identifier>oai:zbmath.org:7451310</identifier>
<datestamp>2022-01-03T11:49:59Z</datestamp>
<setSpec>16</setSpec>
<setSpec>20</setSpec>
</header>
<header>
<identifier>oai:zbmath.org:7451311</identifier>
<datestamp>2022-01-03T11:49:59Z</datestamp>
<setSpec>13</setSpec>
<setSpec>14</setSpec>
<setSpec>52</setSpec>
</header>
<header>
<identifier>oai:zbmath.org:7451312</identifier>
<datestamp>2022-01-03T11:49:59Z</datestamp>
<setSpec>13</setSpec>
<setSpec>16</setSpec>
<setSpec>17</setSpec>
</header>
<header>
<identifier>oai:zbmath.org:7451313</identifier>
<datestamp>2022-01-03T11:49:59Z</datestamp>
<setSpec>16</setSpec>
</header>
<header>
<identifier>oai:zbmath.org:7451314</identifier>
<datestamp>2022-01-03T11:49:59Z</datestamp>
<setSpec>05</setSpec>
<setSpec>11</setSpec>
<setSpec>13</setSpec>
</header>
<header>
<identifier>oai:zbmath.org:7451315</identifier>
<datestamp>2022-01-03T11:49:59Z</datestamp>
<setSpec>17</setSpec>
</header>
<header>
<identifier>oai:zbmath.org:7451316</identifier>
<datestamp>2022-01-03T11:49:59Z</datestamp>
<setSpec>16</setSpec>
<setSpec>20</setSpec>
</header>
<header>
<identifier>oai:zbmath.org:7451317</identifier>
<datestamp>2022-01-03T11:49:59Z</datestamp>
<setSpec>20</setSpec>
</header>
<header>
<identifier>oai:zbmath.org:7451318</identifier>
<datestamp>2022-01-03T11:49:59Z</datestamp>
<setSpec>11</setSpec>
</header>
<header>
<identifier>oai:zbmath.org:7451319</identifier>
<datestamp>2022-01-03T11:49:59Z</datestamp>
<setSpec>16</setSpec>
<setSpec>17</setSpec>
</header>
<header>
<identifier>oai:zbmath.org:7451320</identifier>
<datestamp>2022-01-03T11:49:59Z</datestamp>
<setSpec>16</setSpec>
<setSpec>20</setSpec>
</header>
<header>
<identifier>oai:zbmath.org:7451321</identifier>
<datestamp>2022-01-03T11:49:59Z</datestamp>
<setSpec>11</setSpec>
<setSpec>15</setSpec>
</header>
<header>
<identifier>oai:zbmath.org:7451322</identifier>
<datestamp>2022-01-03T11:49:59Z</datestamp>
<setSpec>05</setSpec>
<setSpec>13</setSpec>
<setSpec>52</setSpec>
</header>
<header>
<identifier>oai:zbmath.org:7451323</identifier>
<datestamp>2022-01-03T11:49:59Z</datestamp>
<setSpec>13</setSpec>
<setSpec>14</setSpec>
<setSpec>32</setSpec>
</header>
<header>
<identifier>oai:zbmath.org:7451324</identifier>
<datestamp>2022-01-03T11:49:59Z</datestamp>
<setSpec>13</setSpec>
</header>
<header>
<identifier>oai:zbmath.org:7451325</identifier>
<datestamp>2022-01-03T11:49:59Z</datestamp>
<setSpec>16</setSpec>
<setSpec>20</setSpec>
</header>
<header>
<identifier>oai:zbmath.org:7451327</identifier>
<datestamp>2022-01-03T11:50:46Z</datestamp>
<setSpec>05</setSpec>
<setSpec>91</setSpec>
</header>
<header>
<identifier>oai:zbmath.org:7451328</identifier>
<datestamp>2022-01-03T11:50:46Z</datestamp>
<setSpec>05</setSpec>
</header>
<header>
<identifier>oai:zbmath.org:7451329</identifier>
<datestamp>2022-01-03T11:50:46Z</datestamp>
<setSpec>05</setSpec>
<setSpec>52</setSpec>
</header>
<header>
<identifier>oai:zbmath.org:7451330</identifier>
<datestamp>2022-01-03T11:50:46Z</datestamp>
<setSpec>11</setSpec>
<setSpec>51</setSpec>
<setSpec>94</setSpec>
</header>
<header>
<identifier>oai:zbmath.org:7451331</identifier>
<datestamp>2022-01-03T11:50:46Z</datestamp>
<setSpec>05</setSpec>
<setSpec>14</setSpec>
</header>
<header>
<identifier>oai:zbmath.org:7451332</identifier>
<datestamp>2022-01-03T11:50:46Z</datestamp>
<setSpec>05</setSpec>
<setSpec>11</setSpec>
</header>
<resumptionToken completeListSize="4945" cursor="100" expirationDate="2022-01-18T17:24:43Z">2cae52fe-853b-4e65-80fa-7e420e50d8f4</resumptionToken>
</ListIdentifiers>
</OAI-PMH>
