<?xml version="1.0" encoding="utf-8"?>
<OAI-PMH xmlns="http://www.openarchives.org/OAI/2.0/" xmlns:xsi="http://www.w3.org/2001/XMLSchema-instance" xsi:schemaLocation="http://www.openarchives.org/OAI/2.0/OAI-PMH.xsd">
	<responseDate>2022-01-18T15:30:33Z</responseDate>
	<request from="2021-01-01T00:00:00Z" metadataPrefix="oai_zb_preview" until="2022-01-01T00:00:00Z" verb="ListIdentifiers">https://oai.zbmath.org/v1/</request>
	<ListIdentifiers>
		<header>
			<identifier>oai:zbmath.org:7289983</identifier>
			<datestamp>2021-01-04T11:21:31Z</datestamp>
			<setSpec>18</setSpec>
		</header>
		<header>
			<identifier>oai:zbmath.org:7289984</identifier>
			<datestamp>2021-01-04T13:00:11Z</datestamp>
			<setSpec>81</setSpec>
		</header>
		<header>
			<identifier>oai:zbmath.org:7289985</identifier>
			<datestamp>2021-01-04T13:42:03Z</datestamp>
			<setSpec>15</setSpec>
			<setSpec>62</setSpec>
		</header>
		<header>
			<identifier>oai:zbmath.org:7289986</identifier>
			<datestamp>2021-01-04T15:27:15Z</datestamp>
			<setSpec>92</setSpec>
		</header>
		<header>
			<identifier>oai:zbmath.org:7289987</identifier>
			<datestamp>2021-01-04T15:27:15Z</datestamp>
			<setSpec>92</setSpec>
		</header>
		<header>
			<identifier>oai:zbmath.org:7289988</identifier>
			<datestamp>2021-01-04T15:27:15Z</datestamp>
			<setSpec>68</setSpec>
		</header>
		<header>
			<identifier>oai:zbmath.org:7289989</identifier>
			<datestamp>2021-01-04T15:27:15Z</datestamp>
			<setSpec>68</setSpec>
		</header>
		<header>
			<identifier>oai:zbmath.org:7289990</identifier>
			<datestamp>2021-01-04T15:27:15Z</datestamp>
			<setSpec>62</setSpec>
			<setSpec>92</setSpec>
			<setSpec>94</setSpec>
		</header>
		<header>
			<identifier>oai:zbmath.org:7289991</identifier>
			<datestamp>2021-01-04T15:27:15Z</datestamp>
			<setSpec>60</setSpec>
			<setSpec>68</setSpec>
			<setSpec>91</setSpec>
		</header>
		<header>
			<identifier>oai:zbmath.org:7289992</identifier>
			<datestamp>2021-01-04T15:27:15Z</datestamp>
			<setSpec>60</setSpec>
			<setSpec>92</setSpec>
		</header>
		<header>
			<identifier>oai:zbmath.org:7289993</identifier>
			<datestamp>2021-01-04T15:27:15Z</datestamp>
			<setSpec>92</setSpec>
		</header>
		<header>
			<identifier>oai:zbmath.org:7289994</identifier>
			<datestamp>2021-01-04T15:27:15Z</datestamp>
			<setSpec>92</setSpec>
		</header>
		<header>
			<identifier>oai:zbmath.org:7289995</identifier>
			<datestamp>2021-01-04T15:27:15Z</datestamp>
			<setSpec>62</setSpec>
		</header>
		<header>
			<identifier>oai:zbmath.org:7289996</identifier>
			<datestamp>2021-01-04T15:27:15Z</datestamp>
			<setSpec>62</setSpec>
		</header>
		<header>
			<identifier>oai:zbmath.org:7289997</identifier>
			<datestamp>2021-01-04T15:27:15Z</datestamp>
			<setSpec>62</setSpec>
			<setSpec>68</setSpec>
		</header>
		<header>
			<identifier>oai:zbmath.org:7289998</identifier>
			<datestamp>2021-01-04T15:27:15Z</datestamp>
			<setSpec>68</setSpec>
			<setSpec>92</setSpec>
		</header>
		<header>
			<identifier>oai:zbmath.org:7289999</identifier>
			<datestamp>2021-01-04T15:27:15Z</datestamp>
			<setSpec>68</setSpec>
		</header>
		<header>
			<identifier>oai:zbmath.org:7290000</identifier>
			<datestamp>2021-01-04T15:27:15Z</datestamp>
			<setSpec>92</setSpec>
		</header>
		<header>
			<identifier>oai:zbmath.org:7290001</identifier>
			<datestamp>2021-01-04T15:27:15Z</datestamp>
			<setSpec>90</setSpec>
			<setSpec>92</setSpec>
		</header>
		<header>
			<identifier>oai:zbmath.org:7290002</identifier>
			<datestamp>2021-01-04T15:27:15Z</datestamp>
			<setSpec>68</setSpec>
		</header>
		<header>
			<identifier>oai:zbmath.org:7290003</identifier>
			<datestamp>2021-01-04T15:27:15Z</datestamp>
			<setSpec>92</setSpec>
		</header>
		<header>
			<identifier>oai:zbmath.org:7290004</identifier>
			<datestamp>2021-01-04T15:27:15Z</datestamp>
			<setSpec>62</setSpec>
			<setSpec>92</setSpec>
		</header>
		<header>
			<identifier>oai:zbmath.org:7290005</identifier>
			<datestamp>2021-01-04T15:27:15Z</datestamp>
			<setSpec>92</setSpec>
		</header>
		<header>
			<identifier>oai:zbmath.org:7290006</identifier>
			<datestamp>2021-01-04T15:27:15Z</datestamp>
			<setSpec>68</setSpec>
		</header>
		<header>
			<identifier>oai:zbmath.org:7290007</identifier>
			<datestamp>2021-01-04T15:27:15Z</datestamp>
			<setSpec>68</setSpec>
		</header>
		<header>
			<identifier>oai:zbmath.org:7290008</identifier>
			<datestamp>2021-01-04T15:27:15Z</datestamp>
			<setSpec>68</setSpec>
		</header>
		<header>
			<identifier>oai:zbmath.org:7290009</identifier>
			<datestamp>2021-01-04T15:27:15Z</datestamp>
			<setSpec>68</setSpec>
		</header>
		<header>
			<identifier>oai:zbmath.org:7290010</identifier>
			<datestamp>2021-01-04T15:27:15Z</datestamp>
			<setSpec>68</setSpec>
		</header>
		<header>
			<identifier>oai:zbmath.org:7290011</identifier>
			<datestamp>2021-01-04T15:27:15Z</datestamp>
			<setSpec>92</setSpec>
		</header>
		<header>
			<identifier>oai:zbmath.org:7290012</identifier>
			<datestamp>2021-01-04T15:27:15Z</datestamp>
			<setSpec>92</setSpec>
		</header>
		<header>
			<identifier>oai:zbmath.org:7290013</identifier>
			<datestamp>2021-01-04T15:27:15Z</datestamp>
			<setSpec>92</setSpec>
		</header>
		<header>
			<identifier>oai:zbmath.org:7290014</identifier>
			<datestamp>2021-01-04T15:27:15Z</datestamp>
			<setSpec>62</setSpec>
			<setSpec>68</setSpec>
		</header>
		<header>
			<identifier>oai:zbmath.org:7290016</identifier>
			<datestamp>2021-01-04T15:27:15Z</datestamp>
			<setSpec>68</setSpec>
		</header>
		<header>
			<identifier>oai:zbmath.org:7290017</identifier>
			<datestamp>2021-01-04T18:00:21Z</datestamp>
			<setSpec>68</setSpec>
		</header>
		<header>
			<identifier>oai:zbmath.org:7290018</identifier>
			<datestamp>2021-01-04T18:00:21Z</datestamp>
			<setSpec>68</setSpec>
		</header>
		<header>
			<identifier>oai:zbmath.org:7290019</identifier>
			<datestamp>2021-01-04T18:00:21Z</datestamp>
			<setSpec>68</setSpec>
		</header>
		<header>
			<identifier>oai:zbmath.org:7290020</identifier>
			<datestamp>2021-01-04T18:01:28Z</datestamp>
			<setSpec>62</setSpec>
			<setSpec>91</setSpec>
		</header>
		<header>
			<identifier>oai:zbmath.org:7290022</identifier>
			<datestamp>2021-01-04T18:48:29Z</datestamp>
			<setSpec>00</setSpec>
			<setSpec>62</setSpec>
		</header>
		<header>
			<identifier>oai:zbmath.org:7290023</identifier>
			<datestamp>2021-01-04T18:48:29Z</datestamp>
			<setSpec>62</setSpec>
		</header>
		<header>
			<identifier>oai:zbmath.org:7290024</identifier>
			<datestamp>2021-01-04T18:48:29Z</datestamp>
			<setSpec>62</setSpec>
		</header>
		<header>
			<identifier>oai:zbmath.org:7290025</identifier>
			<datestamp>2021-01-04T18:48:29Z</datestamp>
			<setSpec>62</setSpec>
		</header>
		<header>
			<identifier>oai:zbmath.org:7290026</identifier>
			<datestamp>2021-01-04T18:48:29Z</datestamp>
			<setSpec>62</setSpec>
		</header>
		<header>
			<identifier>oai:zbmath.org:7290027</identifier>
			<datestamp>2021-01-04T18:48:29Z</datestamp>
			<setSpec>62</setSpec>
		</header>
		<header>
			<identifier>oai:zbmath.org:7290028</identifier>
			<datestamp>2021-01-04T18:48:29Z</datestamp>
			<setSpec>62</setSpec>
		</header>
		<header>
			<identifier>oai:zbmath.org:7290029</identifier>
			<datestamp>2021-01-04T18:48:29Z</datestamp>
			<setSpec>62</setSpec>
		</header>
		<header>
			<identifier>oai:zbmath.org:7290030</identifier>
			<datestamp>2021-01-04T18:48:29Z</datestamp>
			<setSpec>62</setSpec>
		</header>
		<header>
			<identifier>oai:zbmath.org:7290031</identifier>
			<datestamp>2021-01-04T18:48:29Z</datestamp>
			<setSpec>62</setSpec>
		</header>
		<header>
			<identifier>oai:zbmath.org:7290032</identifier>
			<datestamp>2021-01-04T18:48:29Z</datestamp>
			<setSpec>62</setSpec>
		</header>
		<header>
			<identifier>oai:zbmath.org:7290033</identifier>
			<datestamp>2021-01-04T18:48:29Z</datestamp>
			<setSpec>62</setSpec>
		</header>
		<header>
			<identifier>oai:zbmath.org:7290034</identifier>
			<datestamp>2021-01-04T18:48:29Z</datestamp>
			<setSpec>62</setSpec>
		</header>
		<header>
			<identifier>oai:zbmath.org:7290035</identifier>
			<datestamp>2021-01-04T18:48:29Z</datestamp>
			<setSpec>62</setSpec>
		</header>
		<header>
			<identifier>oai:zbmath.org:7290036</identifier>
			<datestamp>2021-01-04T18:48:29Z</datestamp>
			<setSpec>62</setSpec>
		</header>
		<header>
			<identifier>oai:zbmath.org:7290037</identifier>
			<datestamp>2021-01-04T18:48:29Z</datestamp>
			<setSpec>60</setSpec>
			<setSpec>62</setSpec>
		</header>
		<header>
			<identifier>oai:zbmath.org:7290038</identifier>
			<datestamp>2021-01-04T18:48:29Z</datestamp>
			<setSpec>62</setSpec>
		</header>
		<header>
			<identifier>oai:zbmath.org:7290039</identifier>
			<datestamp>2021-01-04T18:48:29Z</datestamp>
			<setSpec>62</setSpec>
		</header>
		<header>
			<identifier>oai:zbmath.org:7290040</identifier>
			<datestamp>2021-01-04T18:48:29Z</datestamp>
			<setSpec>62</setSpec>
		</header>
		<header>
			<identifier>oai:zbmath.org:7290041</identifier>
			<datestamp>2021-01-04T18:48:29Z</datestamp>
			<setSpec>62</setSpec>
		</header>
		<header>
			<identifier>oai:zbmath.org:7290042</identifier>
			<datestamp>2021-01-04T18:48:29Z</datestamp>
			<setSpec>62</setSpec>
		</header>
		<header>
			<identifier>oai:zbmath.org:7290043</identifier>
			<datestamp>2021-01-04T18:48:29Z</datestamp>
			<setSpec>62</setSpec>
		</header>
		<header>
			<identifier>oai:zbmath.org:7290047</identifier>
			<datestamp>2021-01-04T18:54:21Z</datestamp>
			<setSpec>65</setSpec>
			<setSpec>90</setSpec>
		</header>
		<header>
			<identifier>oai:zbmath.org:7290048</identifier>
			<datestamp>2021-01-04T18:54:21Z</datestamp>
			<setSpec>74</setSpec>
		</header>
		<header>
			<identifier>oai:zbmath.org:7290051</identifier>
			<datestamp>2021-01-04T18:54:21Z</datestamp>
			<setSpec>90</setSpec>
		</header>
		<header>
			<identifier>oai:zbmath.org:7290052</identifier>
			<datestamp>2021-01-04T18:54:21Z</datestamp>
			<setSpec>65</setSpec>
			<setSpec>76</setSpec>
		</header>
		<header>
			<identifier>oai:zbmath.org:7290058</identifier>
			<datestamp>2021-01-04T18:54:21Z</datestamp>
			<setSpec>90</setSpec>
		</header>
		<header>
			<identifier>oai:zbmath.org:7290059</identifier>
			<datestamp>2021-01-04T18:54:21Z</datestamp>
			<setSpec>91</setSpec>
		</header>
		<header>
			<identifier>oai:zbmath.org:7290060</identifier>
			<datestamp>2021-01-04T18:54:21Z</datestamp>
			<setSpec>35</setSpec>
			<setSpec>65</setSpec>
		</header>
		<header>
			<identifier>oai:zbmath.org:7290066</identifier>
			<datestamp>2021-01-04T18:54:21Z</datestamp>
			<setSpec>34</setSpec>
			<setSpec>60</setSpec>
			<setSpec>93</setSpec>
		</header>
		<header>
			<identifier>oai:zbmath.org:7290067</identifier>
			<datestamp>2021-01-04T18:54:21Z</datestamp>
			<setSpec>37</setSpec>
			<setSpec>91</setSpec>
		</header>
		<header>
			<identifier>oai:zbmath.org:7290073</identifier>
			<datestamp>2021-01-04T18:54:21Z</datestamp>
			<setSpec>90</setSpec>
		</header>
		<header>
			<identifier>oai:zbmath.org:7290078</identifier>
			<datestamp>2021-01-04T18:54:21Z</datestamp>
			<setSpec>68</setSpec>
			<setSpec>94</setSpec>
		</header>
		<header>
			<identifier>oai:zbmath.org:7290081</identifier>
			<datestamp>2021-01-04T18:54:21Z</datestamp>
			<setSpec>90</setSpec>
			<setSpec>91</setSpec>
		</header>
		<header>
			<identifier>oai:zbmath.org:7290083</identifier>
			<datestamp>2021-01-04T18:54:21Z</datestamp>
			<setSpec>90</setSpec>
			<setSpec>93</setSpec>
		</header>
		<header>
			<identifier>oai:zbmath.org:7290090</identifier>
			<datestamp>2021-01-04T18:54:21Z</datestamp>
			<setSpec>90</setSpec>
			<setSpec>91</setSpec>
		</header>
		<header>
			<identifier>oai:zbmath.org:7290096</identifier>
			<datestamp>2021-01-04T18:54:21Z</datestamp>
			<setSpec>34</setSpec>
		</header>
		<header>
			<identifier>oai:zbmath.org:7290098</identifier>
			<datestamp>2021-01-04T18:54:21Z</datestamp>
			<setSpec>34</setSpec>
			<setSpec>65</setSpec>
		</header>
		<header>
			<identifier>oai:zbmath.org:7290099</identifier>
			<datestamp>2021-01-04T18:54:21Z</datestamp>
			<setSpec>93</setSpec>
		</header>
		<header>
			<identifier>oai:zbmath.org:7290101</identifier>
			<datestamp>2021-01-04T18:54:21Z</datestamp>
			<setSpec>93</setSpec>
		</header>
		<header>
			<identifier>oai:zbmath.org:7290102</identifier>
			<datestamp>2021-01-04T18:54:21Z</datestamp>
			<setSpec>35</setSpec>
		</header>
		<header>
			<identifier>oai:zbmath.org:7290104</identifier>
			<datestamp>2021-01-04T18:54:21Z</datestamp>
			<setSpec>90</setSpec>
			<setSpec>91</setSpec>
		</header>
		<header>
			<identifier>oai:zbmath.org:7290105</identifier>
			<datestamp>2021-01-04T18:54:21Z</datestamp>
			<setSpec>60</setSpec>
			<setSpec>62</setSpec>
			<setSpec>91</setSpec>
		</header>
		<header>
			<identifier>oai:zbmath.org:7290106</identifier>
			<datestamp>2021-01-04T18:54:21Z</datestamp>
			<setSpec>91</setSpec>
		</header>
		<header>
			<identifier>oai:zbmath.org:7290108</identifier>
			<datestamp>2021-01-04T18:54:21Z</datestamp>
			<setSpec>60</setSpec>
			<setSpec>93</setSpec>
		</header>
		<header>
			<identifier>oai:zbmath.org:7290109</identifier>
			<datestamp>2021-01-04T18:54:21Z</datestamp>
			<setSpec>26</setSpec>
			<setSpec>65</setSpec>
		</header>
		<header>
			<identifier>oai:zbmath.org:7290112</identifier>
			<datestamp>2021-01-04T18:54:21Z</datestamp>
			<setSpec>93</setSpec>
		</header>
		<header>
			<identifier>oai:zbmath.org:7290117</identifier>
			<datestamp>2021-01-04T18:54:21Z</datestamp>
			<setSpec>65</setSpec>
		</header>
		<header>
			<identifier>oai:zbmath.org:7290120</identifier>
			<datestamp>2021-01-04T18:54:21Z</datestamp>
			<setSpec>93</setSpec>
		</header>
		<header>
			<identifier>oai:zbmath.org:7290125</identifier>
			<datestamp>2021-01-04T18:58:16Z</datestamp>
			<setSpec>05</setSpec>
			<setSpec>14</setSpec>
			<setSpec>15</setSpec>
			<setSpec>52</setSpec>
			<setSpec>81</setSpec>
		</header>
		<header>
			<identifier>oai:zbmath.org:7290126</identifier>
			<datestamp>2021-01-04T18:58:16Z</datestamp>
			<setSpec>05</setSpec>
			<setSpec>60</setSpec>
		</header>
		<header>
			<identifier>oai:zbmath.org:7290127</identifier>
			<datestamp>2021-01-04T18:58:16Z</datestamp>
			<setSpec>16</setSpec>
			<setSpec>22</setSpec>
			<setSpec>43</setSpec>
			<setSpec>46</setSpec>
		</header>
		<header>
			<identifier>oai:zbmath.org:7290128</identifier>
			<datestamp>2021-01-04T18:58:16Z</datestamp>
			<setSpec>05</setSpec>
			<setSpec>15</setSpec>
			<setSpec>81</setSpec>
		</header>
		<header>
			<identifier>oai:zbmath.org:7290129</identifier>
			<datestamp>2021-01-04T18:58:16Z</datestamp>
			<setSpec>05</setSpec>
			<setSpec>81</setSpec>
		</header>
		<header>
			<identifier>oai:zbmath.org:7290130</identifier>
			<datestamp>2021-01-04T18:58:16Z</datestamp>
			<setSpec>05</setSpec>
			<setSpec>81</setSpec>
		</header>
		<header>
			<identifier>oai:zbmath.org:7290131</identifier>
			<datestamp>2021-01-04T18:58:16Z</datestamp>
			<setSpec>05</setSpec>
			<setSpec>60</setSpec>
		</header>
		<header>
			<identifier>oai:zbmath.org:7290132</identifier>
			<datestamp>2021-01-04T18:58:16Z</datestamp>
			<setSpec>05</setSpec>
			<setSpec>28</setSpec>
			<setSpec>31</setSpec>
			<setSpec>37</setSpec>
			<setSpec>60</setSpec>
			<setSpec>82</setSpec>
		</header>
		<header>
			<identifier>oai:zbmath.org:7290133</identifier>
			<datestamp>2021-01-04T18:59:56Z</datestamp>
			<setSpec>28</setSpec>
			<setSpec>37</setSpec>
			<setSpec>54</setSpec>
		</header>
		<header>
			<identifier>oai:zbmath.org:7290134</identifier>
			<datestamp>2021-01-04T18:59:56Z</datestamp>
			<setSpec>28</setSpec>
			<setSpec>37</setSpec>
		</header>
		<header>
			<identifier>oai:zbmath.org:7290135</identifier>
			<datestamp>2021-01-04T18:59:56Z</datestamp>
			<setSpec>11</setSpec>
			<setSpec>28</setSpec>
		</header>
		<header>
			<identifier>oai:zbmath.org:7290136</identifier>
			<datestamp>2021-01-04T18:59:56Z</datestamp>
			<setSpec>11</setSpec>
			<setSpec>28</setSpec>
		</header>
		<header>
			<identifier>oai:zbmath.org:7290137</identifier>
			<datestamp>2021-01-04T18:59:56Z</datestamp>
			<setSpec>30</setSpec>
			<setSpec>37</setSpec>
		</header>
		<header>
			<identifier>oai:zbmath.org:7290138</identifier>
			<datestamp>2021-01-04T18:59:56Z</datestamp>
			<setSpec>28</setSpec>
			<setSpec>37</setSpec>
		</header>
		<resumptionToken completeListSize="134537" cursor="100" expirationDate="2022-01-19T15:30:33Z">e81af251-ef6d-4b6e-b272-9907ea8cfd23</resumptionToken>
	</ListIdentifiers>
</OAI-PMH>
