<?xml version="1.0" encoding="utf-8"?>
<OAI-PMH xmlns="http://www.openarchives.org/OAI/2.0/" xmlns:xsi="http://www.w3.org/2001/XMLSchema-instance" xsi:schemaLocation="http://www.openarchives.org/OAI/2.0/OAI-PMH.xsd">
	<responseDate>2022-01-19T14:27:28Z</responseDate>
	<request from="2021-01-01T00:00:00Z" metadataPrefix="oai_zb_preview" until="2022-01-01T00:00:00Z" verb="ListIdentifiers">https://oai.zbmath.org/v1/</request>
	<ListIdentifiers>
		<header>
			<identifier>oai:zbmath.org:7300107</identifier>
			<datestamp>2021-01-22T13:32:10Z</datestamp>
			<setSpec>03</setSpec>
		</header>
		<header>
			<identifier>oai:zbmath.org:7324163</identifier>
			<datestamp>2021-03-17T19:00:37Z</datestamp>
			<setSpec>37</setSpec>
		</header>
		<header>
			<identifier>oai:zbmath.org:7324164</identifier>
			<datestamp>2021-03-17T19:00:37Z</datestamp>
			<setSpec>35</setSpec>
			<setSpec>65</setSpec>
		</header>
		<header>
			<identifier>oai:zbmath.org:7324165</identifier>
			<datestamp>2021-03-17T19:00:37Z</datestamp>
			<setSpec>33</setSpec>
			<setSpec>34</setSpec>
			<setSpec>65</setSpec>
		</header>
		<header>
			<identifier>oai:zbmath.org:7324166</identifier>
			<datestamp>2021-03-17T19:00:37Z</datestamp>
			<setSpec>35</setSpec>
			<setSpec>76</setSpec>
		</header>
		<header>
			<identifier>oai:zbmath.org:7324167</identifier>
			<datestamp>2021-03-17T19:00:37Z</datestamp>
			<setSpec>35</setSpec>
			<setSpec>37</setSpec>
			<setSpec>49</setSpec>
			<setSpec>70</setSpec>
			<setSpec>74</setSpec>
		</header>
		<header>
			<identifier>oai:zbmath.org:7324168</identifier>
			<datestamp>2021-03-17T19:12:48Z</datestamp>
			<setSpec>65</setSpec>
		</header>
		<header>
			<identifier>oai:zbmath.org:7324169</identifier>
			<datestamp>2021-03-17T19:12:48Z</datestamp>
			<setSpec>05</setSpec>
			<setSpec>15</setSpec>
			<setSpec>47</setSpec>
		</header>
		<header>
			<identifier>oai:zbmath.org:7324170</identifier>
			<datestamp>2021-03-17T19:12:48Z</datestamp>
			<setSpec>15</setSpec>
			<setSpec>65</setSpec>
		</header>
		<header>
			<identifier>oai:zbmath.org:7324171</identifier>
			<datestamp>2021-03-17T19:12:48Z</datestamp>
			<setSpec>15</setSpec>
			<setSpec>65</setSpec>
		</header>
		<header>
			<identifier>oai:zbmath.org:7324172</identifier>
			<datestamp>2021-03-17T19:12:48Z</datestamp>
			<setSpec>93</setSpec>
		</header>
		<header>
			<identifier>oai:zbmath.org:7324173</identifier>
			<datestamp>2021-03-17T19:18:45Z</datestamp>
			<setSpec>35</setSpec>
			<setSpec>58</setSpec>
		</header>
		<header>
			<identifier>oai:zbmath.org:7324174</identifier>
			<datestamp>2021-03-17T19:18:45Z</datestamp>
			<setSpec>35</setSpec>
			<setSpec>76</setSpec>
		</header>
		<header>
			<identifier>oai:zbmath.org:7324175</identifier>
			<datestamp>2021-03-17T19:18:45Z</datestamp>
			<setSpec>35</setSpec>
			<setSpec>81</setSpec>
		</header>
		<header>
			<identifier>oai:zbmath.org:7324176</identifier>
			<datestamp>2021-03-17T19:18:45Z</datestamp>
			<setSpec>35</setSpec>
		</header>
		<header>
			<identifier>oai:zbmath.org:7324177</identifier>
			<datestamp>2021-03-17T19:18:45Z</datestamp>
			<setSpec>35</setSpec>
		</header>
		<header>
			<identifier>oai:zbmath.org:7324178</identifier>
			<datestamp>2021-03-17T19:18:45Z</datestamp>
			<setSpec>35</setSpec>
		</header>
		<header>
			<identifier>oai:zbmath.org:7324179</identifier>
			<datestamp>2021-03-17T19:18:45Z</datestamp>
			<setSpec>35</setSpec>
			<setSpec>37</setSpec>
			<setSpec>76</setSpec>
		</header>
		<header>
			<identifier>oai:zbmath.org:7324180</identifier>
			<datestamp>2021-03-17T19:20:28Z</datestamp>
			<setSpec>60</setSpec>
			<setSpec>91</setSpec>
		</header>
		<header>
			<identifier>oai:zbmath.org:7324181</identifier>
			<datestamp>2021-03-17T19:20:28Z</datestamp>
			<setSpec>91</setSpec>
		</header>
		<header>
			<identifier>oai:zbmath.org:7324182</identifier>
			<datestamp>2021-03-17T19:20:28Z</datestamp>
			<setSpec>62</setSpec>
			<setSpec>91</setSpec>
		</header>
		<header>
			<identifier>oai:zbmath.org:7324183</identifier>
			<datestamp>2021-03-17T19:20:28Z</datestamp>
			<setSpec>91</setSpec>
		</header>
		<header>
			<identifier>oai:zbmath.org:7324184</identifier>
			<datestamp>2021-03-17T19:20:28Z</datestamp>
			<setSpec>62</setSpec>
			<setSpec>91</setSpec>
		</header>
		<header>
			<identifier>oai:zbmath.org:7324185</identifier>
			<datestamp>2021-03-17T19:20:28Z</datestamp>
			<setSpec>91</setSpec>
		</header>
		<header>
			<identifier>oai:zbmath.org:7324186</identifier>
			<datestamp>2021-03-17T19:20:28Z</datestamp>
			<setSpec>91</setSpec>
			<setSpec>93</setSpec>
		</header>
		<header>
			<identifier>oai:zbmath.org:7324187</identifier>
			<datestamp>2021-03-17T19:20:28Z</datestamp>
			<setSpec>91</setSpec>
		</header>
		<header>
			<identifier>oai:zbmath.org:7324188</identifier>
			<datestamp>2021-03-17T19:20:28Z</datestamp>
			<setSpec>91</setSpec>
		</header>
		<header>
			<identifier>oai:zbmath.org:7324189</identifier>
			<datestamp>2021-03-17T19:20:28Z</datestamp>
			<setSpec>60</setSpec>
			<setSpec>91</setSpec>
			<setSpec>93</setSpec>
		</header>
		<header>
			<identifier>oai:zbmath.org:7324190</identifier>
			<datestamp>2021-03-17T19:20:28Z</datestamp>
			<setSpec>91</setSpec>
		</header>
		<header>
			<identifier>oai:zbmath.org:7324191</identifier>
			<datestamp>2021-03-17T19:20:28Z</datestamp>
			<setSpec>91</setSpec>
		</header>
		<header>
			<identifier>oai:zbmath.org:7324192</identifier>
			<datestamp>2021-03-17T19:20:28Z</datestamp>
			<setSpec>91</setSpec>
		</header>
		<header>
			<identifier>oai:zbmath.org:7324193</identifier>
			<datestamp>2021-03-17T19:20:28Z</datestamp>
			<setSpec>60</setSpec>
			<setSpec>91</setSpec>
		</header>
		<header>
			<identifier>oai:zbmath.org:7324194</identifier>
			<datestamp>2021-03-17T19:20:28Z</datestamp>
			<setSpec>91</setSpec>
		</header>
		<header>
			<identifier>oai:zbmath.org:7324195</identifier>
			<datestamp>2021-03-17T19:20:28Z</datestamp>
			<setSpec>91</setSpec>
		</header>
		<header>
			<identifier>oai:zbmath.org:7324196</identifier>
			<datestamp>2021-03-17T19:20:28Z</datestamp>
			<setSpec>60</setSpec>
			<setSpec>91</setSpec>
		</header>
		<header>
			<identifier>oai:zbmath.org:7324197</identifier>
			<datestamp>2021-03-17T19:20:28Z</datestamp>
			<setSpec>91</setSpec>
		</header>
		<header>
			<identifier>oai:zbmath.org:7324198</identifier>
			<datestamp>2021-03-17T19:20:28Z</datestamp>
			<setSpec>60</setSpec>
			<setSpec>68</setSpec>
			<setSpec>91</setSpec>
		</header>
		<header>
			<identifier>oai:zbmath.org:7324199</identifier>
			<datestamp>2021-03-17T19:20:28Z</datestamp>
			<setSpec>60</setSpec>
			<setSpec>91</setSpec>
		</header>
		<header>
			<identifier>oai:zbmath.org:7324201</identifier>
			<datestamp>2021-03-17T19:20:28Z</datestamp>
			<setSpec>60</setSpec>
			<setSpec>91</setSpec>
		</header>
		<header>
			<identifier>oai:zbmath.org:7324202</identifier>
			<datestamp>2021-03-17T19:20:28Z</datestamp>
			<setSpec>91</setSpec>
		</header>
		<header>
			<identifier>oai:zbmath.org:7324203</identifier>
			<datestamp>2021-03-17T19:20:28Z</datestamp>
			<setSpec>62</setSpec>
			<setSpec>91</setSpec>
		</header>
		<header>
			<identifier>oai:zbmath.org:7324204</identifier>
			<datestamp>2021-03-17T19:20:28Z</datestamp>
			<setSpec>91</setSpec>
		</header>
		<header>
			<identifier>oai:zbmath.org:7324205</identifier>
			<datestamp>2021-03-17T19:20:28Z</datestamp>
			<setSpec>62</setSpec>
			<setSpec>91</setSpec>
		</header>
		<header>
			<identifier>oai:zbmath.org:7324206</identifier>
			<datestamp>2021-03-17T19:20:28Z</datestamp>
			<setSpec>91</setSpec>
			<setSpec>93</setSpec>
		</header>
		<header>
			<identifier>oai:zbmath.org:7324207</identifier>
			<datestamp>2021-03-17T19:20:28Z</datestamp>
			<setSpec>60</setSpec>
			<setSpec>91</setSpec>
		</header>
		<header>
			<identifier>oai:zbmath.org:7324209</identifier>
			<datestamp>2021-03-17T19:21:37Z</datestamp>
			<setSpec>35</setSpec>
			<setSpec>42</setSpec>
		</header>
		<header>
			<identifier>oai:zbmath.org:7324210</identifier>
			<datestamp>2021-03-17T19:21:37Z</datestamp>
			<setSpec>35</setSpec>
		</header>
		<header>
			<identifier>oai:zbmath.org:7324211</identifier>
			<datestamp>2021-03-17T19:21:37Z</datestamp>
			<setSpec>49</setSpec>
			<setSpec>53</setSpec>
		</header>
		<header>
			<identifier>oai:zbmath.org:7324212</identifier>
			<datestamp>2021-03-17T19:21:37Z</datestamp>
			<setSpec>35</setSpec>
			<setSpec>53</setSpec>
		</header>
		<header>
			<identifier>oai:zbmath.org:7324213</identifier>
			<datestamp>2021-03-17T19:21:37Z</datestamp>
			<setSpec>46</setSpec>
		</header>
		<header>
			<identifier>oai:zbmath.org:7324214</identifier>
			<datestamp>2021-03-17T19:21:37Z</datestamp>
			<setSpec>35</setSpec>
			<setSpec>58</setSpec>
		</header>
		<header>
			<identifier>oai:zbmath.org:7324215</identifier>
			<datestamp>2021-03-17T19:21:37Z</datestamp>
			<setSpec>46</setSpec>
		</header>
		<header>
			<identifier>oai:zbmath.org:7324216</identifier>
			<datestamp>2021-03-17T19:21:37Z</datestamp>
			<setSpec>35</setSpec>
			<setSpec>49</setSpec>
		</header>
		<header>
			<identifier>oai:zbmath.org:7324217</identifier>
			<datestamp>2021-03-17T19:22:29Z</datestamp>
			<setSpec>35</setSpec>
		</header>
		<header>
			<identifier>oai:zbmath.org:7324218</identifier>
			<datestamp>2021-03-17T19:22:29Z</datestamp>
			<setSpec>35</setSpec>
			<setSpec>37</setSpec>
			<setSpec>46</setSpec>
			<setSpec>60</setSpec>
		</header>
		<header>
			<identifier>oai:zbmath.org:7324219</identifier>
			<datestamp>2021-03-17T19:22:29Z</datestamp>
			<setSpec>35</setSpec>
			<setSpec>60</setSpec>
		</header>
		<header>
			<identifier>oai:zbmath.org:7324220</identifier>
			<datestamp>2021-03-17T19:22:29Z</datestamp>
			<setSpec>35</setSpec>
		</header>
		<header>
			<identifier>oai:zbmath.org:7324221</identifier>
			<datestamp>2021-03-17T19:22:29Z</datestamp>
			<setSpec>35</setSpec>
			<setSpec>76</setSpec>
		</header>
		<header>
			<identifier>oai:zbmath.org:7324222</identifier>
			<datestamp>2021-03-17T19:25:09Z</datestamp>
			<setSpec>05</setSpec>
		</header>
		<header>
			<identifier>oai:zbmath.org:7324223</identifier>
			<datestamp>2021-03-17T19:25:09Z</datestamp>
			<setSpec>00</setSpec>
			<setSpec>05</setSpec>
		</header>
		<header>
			<identifier>oai:zbmath.org:7324224</identifier>
			<datestamp>2021-03-17T19:25:09Z</datestamp>
			<setSpec>05</setSpec>
			<setSpec>94</setSpec>
		</header>
		<header>
			<identifier>oai:zbmath.org:7324225</identifier>
			<datestamp>2021-03-17T19:25:09Z</datestamp>
			<setSpec>05</setSpec>
		</header>
		<header>
			<identifier>oai:zbmath.org:7324226</identifier>
			<datestamp>2021-03-17T19:25:09Z</datestamp>
			<setSpec>05</setSpec>
		</header>
		<header>
			<identifier>oai:zbmath.org:7324227</identifier>
			<datestamp>2021-03-17T19:25:09Z</datestamp>
			<setSpec>05</setSpec>
		</header>
		<header>
			<identifier>oai:zbmath.org:7324228</identifier>
			<datestamp>2021-03-17T19:25:09Z</datestamp>
			<setSpec>05</setSpec>
		</header>
		<header>
			<identifier>oai:zbmath.org:7324229</identifier>
			<datestamp>2021-03-17T19:25:09Z</datestamp>
			<setSpec>05</setSpec>
			<setSpec>11</setSpec>
		</header>
		<header>
			<identifier>oai:zbmath.org:7324230</identifier>
			<datestamp>2021-03-17T19:25:09Z</datestamp>
			<setSpec>05</setSpec>
		</header>
		<header>
			<identifier>oai:zbmath.org:7324231</identifier>
			<datestamp>2021-03-17T19:25:09Z</datestamp>
			<setSpec>05</setSpec>
		</header>
		<header>
			<identifier>oai:zbmath.org:7324232</identifier>
			<datestamp>2021-03-17T19:25:09Z</datestamp>
			<setSpec>05</setSpec>
			<setSpec>20</setSpec>
			<setSpec>57</setSpec>
		</header>
		<header>
			<identifier>oai:zbmath.org:7324233</identifier>
			<datestamp>2021-03-17T19:25:09Z</datestamp>
			<setSpec>05</setSpec>
		</header>
		<header>
			<identifier>oai:zbmath.org:7324234</identifier>
			<datestamp>2021-03-17T19:25:09Z</datestamp>
			<setSpec>05</setSpec>
		</header>
		<header>
			<identifier>oai:zbmath.org:7324235</identifier>
			<datestamp>2021-03-17T19:25:09Z</datestamp>
			<setSpec>05</setSpec>
		</header>
		<header>
			<identifier>oai:zbmath.org:7324236</identifier>
			<datestamp>2021-03-17T19:25:09Z</datestamp>
			<setSpec>05</setSpec>
		</header>
		<header>
			<identifier>oai:zbmath.org:7324237</identifier>
			<datestamp>2021-03-17T19:25:09Z</datestamp>
			<setSpec>05</setSpec>
		</header>
		<header>
			<identifier>oai:zbmath.org:7324238</identifier>
			<datestamp>2021-03-17T19:25:09Z</datestamp>
			<setSpec>05</setSpec>
		</header>
		<header>
			<identifier>oai:zbmath.org:7324239</identifier>
			<datestamp>2021-03-17T19:25:09Z</datestamp>
			<setSpec>05</setSpec>
		</header>
		<header>
			<identifier>oai:zbmath.org:7324240</identifier>
			<datestamp>2021-03-17T19:25:09Z</datestamp>
			<setSpec>05</setSpec>
			<setSpec>20</setSpec>
		</header>
		<header>
			<identifier>oai:zbmath.org:7324241</identifier>
			<datestamp>2021-03-17T19:25:09Z</datestamp>
			<setSpec>05</setSpec>
		</header>
		<header>
			<identifier>oai:zbmath.org:7324242</identifier>
			<datestamp>2021-03-17T19:25:09Z</datestamp>
			<setSpec>05</setSpec>
		</header>
		<header>
			<identifier>oai:zbmath.org:7324243</identifier>
			<datestamp>2021-03-17T19:25:09Z</datestamp>
			<setSpec>05</setSpec>
		</header>
		<header>
			<identifier>oai:zbmath.org:7324244</identifier>
			<datestamp>2021-03-17T19:25:09Z</datestamp>
			<setSpec>05</setSpec>
		</header>
		<header>
			<identifier>oai:zbmath.org:7324245</identifier>
			<datestamp>2021-03-17T19:25:09Z</datestamp>
			<setSpec>05</setSpec>
			<setSpec>11</setSpec>
		</header>
		<header>
			<identifier>oai:zbmath.org:7324246</identifier>
			<datestamp>2021-03-17T19:28:32Z</datestamp>
			<setSpec>11</setSpec>
		</header>
		<header>
			<identifier>oai:zbmath.org:7324247</identifier>
			<datestamp>2021-03-17T19:28:32Z</datestamp>
			<setSpec>49</setSpec>
			<setSpec>52</setSpec>
			<setSpec>53</setSpec>
		</header>
		<header>
			<identifier>oai:zbmath.org:7324248</identifier>
			<datestamp>2021-03-17T19:28:32Z</datestamp>
			<setSpec>20</setSpec>
			<setSpec>57</setSpec>
		</header>
		<header>
			<identifier>oai:zbmath.org:7324249</identifier>
			<datestamp>2021-03-17T19:28:32Z</datestamp>
			<setSpec>11</setSpec>
		</header>
		<header>
			<identifier>oai:zbmath.org:7324250</identifier>
			<datestamp>2021-03-17T19:28:32Z</datestamp>
			<setSpec>28</setSpec>
			<setSpec>42</setSpec>
		</header>
		<header>
			<identifier>oai:zbmath.org:7324251</identifier>
			<datestamp>2021-03-17T19:28:32Z</datestamp>
			<setSpec>14</setSpec>
		</header>
		<header>
			<identifier>oai:zbmath.org:7324252</identifier>
			<datestamp>2021-03-17T19:28:32Z</datestamp>
			<setSpec>53</setSpec>
		</header>
		<header>
			<identifier>oai:zbmath.org:7324253</identifier>
			<datestamp>2021-03-17T19:28:32Z</datestamp>
			<setSpec>32</setSpec>
		</header>
		<header>
			<identifier>oai:zbmath.org:7324254</identifier>
			<datestamp>2021-03-17T19:28:32Z</datestamp>
			<setSpec>35</setSpec>
		</header>
		<header>
			<identifier>oai:zbmath.org:7324255</identifier>
			<datestamp>2021-03-17T19:29:22Z</datestamp>
			<setSpec>68</setSpec>
		</header>
		<header>
			<identifier>oai:zbmath.org:7324256</identifier>
			<datestamp>2021-03-17T19:29:22Z</datestamp>
			<setSpec>03</setSpec>
			<setSpec>68</setSpec>
		</header>
		<header>
			<identifier>oai:zbmath.org:7324257</identifier>
			<datestamp>2021-03-17T19:29:22Z</datestamp>
			<setSpec>03</setSpec>
		</header>
		<header>
			<identifier>oai:zbmath.org:7324258</identifier>
			<datestamp>2021-03-17T19:29:22Z</datestamp>
			<setSpec>03</setSpec>
			<setSpec>68</setSpec>
		</header>
		<header>
			<identifier>oai:zbmath.org:7324260</identifier>
			<datestamp>2021-03-17T19:30:24Z</datestamp>
			<setSpec>05</setSpec>
		</header>
		<header>
			<identifier>oai:zbmath.org:7324261</identifier>
			<datestamp>2021-03-17T19:30:24Z</datestamp>
			<setSpec>05</setSpec>
		</header>
		<header>
			<identifier>oai:zbmath.org:7324262</identifier>
			<datestamp>2021-03-17T19:30:24Z</datestamp>
			<setSpec>05</setSpec>
		</header>
		<header>
			<identifier>oai:zbmath.org:7324263</identifier>
			<datestamp>2021-03-17T19:30:24Z</datestamp>
			<setSpec>05</setSpec>
		</header>
		<header>
			<identifier>oai:zbmath.org:7324264</identifier>
			<datestamp>2021-03-17T19:30:24Z</datestamp>
			<setSpec>05</setSpec>
		</header>
		<resumptionToken completeListSize="134523" cursor="100" expirationDate="2022-01-20T14:27:28Z">2d9a326e-2fed-4804-bd93-a78633c69150</resumptionToken>
	</ListIdentifiers>
</OAI-PMH>
